{
    "apikey": "xxxxxxxx",
    "action": "record.json",
    "success": true,
    "statsDuration": 41,
    "requestNumber": 2998,
    "object": {
        "type": "IMAGE",
        "about": "\/2021608\/dispatcher_aspx_action_search_database_ChoiceCollect_search_priref_12974",
        "proxies": [
            {
                "about": "\/proxy\/provider\/2021608\/dispatcher_aspx_action_search_database_ChoiceCollect_search_priref_12974",
                "dcCreator": {
                    "def": [
                        "onbekend"
                    ]
                },
                "dcDate": {
                    "def": [
                        "1700",
                        "1799"
                    ]
                },
                "dcFormat": {
                    "def": [
                        "hoogte kop 8 cm",
                        "diameter kop 8.5 cm",
                        "hoogte schotel 6 cm",
                        "diameter schotel 15 cm"
                    ]
                },
                "dcIdentifier": {
                    "def": [
                        "KA 6432"
                    ]
                },
                "dcLanguage": {
                    "def": [
                        "NL"
                    ]
                },
                "dcSource": {
                    "def": [
                        "Amsterdam Museum"
                    ]
                },
                "dcTitle": {
                    "def": [
                        "Trembleuse"
                    ]
                },
                "dcType": {
                    "def": [
                        "trembleuse",
                        "porselein",
                        "ijzerglazuur"
                    ]
                },
                "proxyIn": [
                    "\/aggregation\/provider\/2021608\/dispatcher_aspx_action_search_database_ChoiceCollect_search_priref_12974"
                ],
                "proxyFor": "\/item\/2021608\/dispatcher_aspx_action_search_database_ChoiceCollect_search_priref_12974",
                "edmType": "IMAGE",
                "europeanaProxy": false
            },
            {
                "about": "\/proxy\/europeana\/2021608\/dispatcher_aspx_action_search_database_ChoiceCollect_search_priref_12974",
                "dcDate": {
                    "def": [
                        "http:\/\/semium.org\/time\/1700"
                    ]
                },
                "proxyIn": [
                    "\/aggregation\/europeana\/2021608\/dispatcher_aspx_action_search_database_ChoiceCollect_search_priref_12974"
                ],
                "proxyFor": "\/item\/2021608\/dispatcher_aspx_action_search_database_ChoiceCollect_search_priref_12974",
                "edmType": "IMAGE",
                "year": {
                    "eur": [
                        "1700",
                        "1799"
                    ]
                },
                "europeanaProxy": true
            }
        ],
        "aggregations": [
            {
                "about": "\/aggregation\/provider\/2021608\/dispatcher_aspx_action_search_database_ChoiceCollect_search_priref_12974",
                "edmDataProvider": {
                    "def": [
                        "Amsterdam Museum"
                    ]
                },
                "edmIsShownBy": "http:\/\/am.adlibhosting.com\/amimages\/ka_6432.jpg",
                "edmIsShownAt": "http:\/\/europeana.eu\/api\/87306720\/redirect?shownAt=http%253A%252F%252Fam.adlibhosting.com%252Fdispatcher.aspx%253Faction%253Dsearch%2526database%253DChoiceCollect%2526search%253Dpriref%253D12974%2526bt%253Deuropeanaapi&provider=Digitale%2BCollectie&id=http%3A%2F%2Fwww.europeana.eu%2Fresolve%2Frecord%2F2021608%2Fdispatcher_aspx_action_search_database_ChoiceCollect_search_priref_12974&profile=full",
                "edmObject": "http:\/\/am.adlibhosting.com\/amimages\/ka_6432.jpg",
                "edmProvider": {
                    "def": [
                        "Digitale Collectie"
                    ]
                },
                "edmRights": {
                    "def": [
                        "http:\/\/creativecommons.org\/licenses\/by\/3.0\/"
                    ]
                },
                "dcRights": {
                    "def": [
                        "Amsterdam Museum"
                    ]
                },
                "aggregatedCHO": "\/item\/2021608\/dispatcher_aspx_action_search_database_ChoiceCollect_search_priref_12974",
                "webResources": [
                    {
                        "about": "http:\/\/am.adlibhosting.com\/dispatcher.aspx?action=search&database=ChoiceCollect&search=priref=12974"
                    },
                    {
                        "about": "http:\/\/am.adlibhosting.com\/amimages\/ka_6432.jpg"
                    }
                ]
            }
        ],
        "europeanaCollectionName": [
            "2021608_Ag_NL_DigitaleCollectie_amsterdam-museum"
        ],
        "timespans": [
            {
                "about": "http:\/\/semium.org\/time\/17xx_1_third",
                "prefLabel": {
                    "en": [
                        "Early 18th century"
                    ],
                    "ru": [
                        "\u041d\u0430\u0447\u0430\u043b\u043e 18-\u0433\u043e \u0432\u0435\u043a\u0430"
                    ]
                },
                "begin": {
                    "def": [
                        "Sat Jan 01 01:00:00 CET 1701"
                    ]
                },
                "end": {
                    "def": [
                        "Thu Dec 31 01:00:00 CET 1733"
                    ]
                }
            },
            {
                "about": "http:\/\/semium.org\/time\/1700",
                "prefLabel": {
                    "def": [
                        "1700"
                    ]
                },
                "begin": {
                    "def": [
                        "Fri Jan 01 01:00:00 CET 1700"
                    ]
                },
                "end": {
                    "def": [
                        "Fri Dec 31 01:00:00 CET 1700"
                    ]
                },
                "isPartOf": {
                    "en": [
                        "http:\/\/semium.org\/time\/17xx_1_third"
                    ]
                }
            }
        ],
        "europeanaCompleteness": 5,
        "providedCHOs": [
            {
                "about": "\/item\/2021608\/dispatcher_aspx_action_search_database_ChoiceCollect_search_priref_12974"
            }
        ],
        "europeanaAggregation": {
            "about": "\/aggregation\/europeana\/2021608\/dispatcher_aspx_action_search_database_ChoiceCollect_search_priref_12974",
            "aggregatedCHO": "\/item\/2021608\/dispatcher_aspx_action_search_database_ChoiceCollect_search_priref_12974",
            "dcCreator": {
                "def": [
                    "Europeana"
                ]
            },
            "edmLandingPage": "http:\/\/www.europeana.eu\/portal\/record\/2021608\/dispatcher_aspx_action_search_database_ChoiceCollect_search_priref_12974.html",
            "edmCountry": {
                "def": [
                    "netherlands"
                ]
            },
            "edmLanguage": {
                "def": [
                    "nl"
                ]
            },
            "edmRights": {
                "def": [
                    "http:\/\/creativecommons.org\/licenses\/by\/3.0\/"
                ]
            },
            "edmPreview": "http:\/\/europeanastatic.eu\/api\/image?uri=http%253A%252F%252Fam.adlibhosting.com%252Famimages%252Fka_6432.jpg&size=LARGE&type=IMAGE"
        },
        "edmDatasetName": [
            "2021608_Ag_NL_DigitaleCollectie_amsterdam-museum"
        ],
        "timestamp_created_epoch": 0,
        "timestamp_update_epoch": 0,
        "timestamp_created": "1970-01-01T00:00:00.000Z",
        "timestamp_update": "1970-01-01T00:00:00.000Z"
    }
}